{
  "h:head": {
    "curies": [{"prefix": "ea", "uri": "http://example.com/docs/rels/"}],
    "h:ref": {"self": "/orders", "next": "/orders?page=2"},
    "h:action": [
      {
        "rel": ["ea:find"],
        "uri": "/orders{?id}",
        "template": {"fields": {"id": {}}}
      }
    ]
  },
  "currentlyProcessing": 14,
  "shippedToday": 20,
  "ea:order": [
    {
      "h:ref": {
        "self": "/orders/123",
        "ea:basket": "/baskets/98712",
        "ea:customer": "/customers/7809"
      },
      "total": 30,
      "currency": "USD",
      "status": "shipped"
    },
    {
      "h:ref": {
        "self": "/orders/124",
        "ea:basket": "/baskets/97213",
        "ea:customer": "/customers/12369"
      },
      "total": 20,
      "currency": "USD",
      "status": "processing"
    }
  ],
  "ea:admin": [
    {"title": "Fred", "h:ref": "/admins/2"},
    {"title": "Kate", "h:ref": "/admins/5"}
  ]
}
